EESchema Schematic File Version 4
EELAYER 30 0
EELAYER END
$Descr A4 11693 8268
encoding utf-8
Sheet 2 3
Title ""
Date ""
Rev ""
Comp ""
Comment1 ""
Comment2 ""
Comment3 ""
Comment4 ""
$EndDescr
$Comp
L LED:WS2812B D?
U 1 1 6004E36E
P 1350 1950
AR Path="/6004E36E" Ref="D?"  Part="1" 
AR Path="/6004A299/6004E36E" Ref="D3"  Part="1" 
F 0 "D3" H 1600 2150 50  0000 L CNN
F 1 "WS2812B-MINI" H 1600 1800 50  0000 L CNN
F 2 "LED_SMD:LED_SK6812MINI_PLCC4_3.5x3.5mm_P1.75mm" H 1400 1650 50  0001 L TNN
F 3 "" H 1450 1575 50  0001 L TNN
F 4 "WS2812B-MINI" H 1350 1950 50  0001 C CNN "MPN"
F 5 "TME" H 1350 1950 50  0001 C CNN "Source"
	1    1350 1950
	1    0    0    -1  
$EndComp
$Comp
L power:+BATT #PWR?
U 1 1 6004E374
P 1350 1650
AR Path="/6004E374" Ref="#PWR?"  Part="1" 
AR Path="/6004A299/6004E374" Ref="#PWR0118"  Part="1" 
F 0 "#PWR0118" H 1350 1500 50  0001 C CNN
F 1 "+BATT" H 1365 1823 50  0000 C CNN
F 2 "" H 1350 1650 50  0001 C CNN
F 3 "" H 1350 1650 50  0001 C CNN
	1    1350 1650
	1    0    0    -1  
$EndComp
$Comp
L power:GND #PWR?
U 1 1 6004E37A
P 1350 2250
AR Path="/6004E37A" Ref="#PWR?"  Part="1" 
AR Path="/6004A299/6004E37A" Ref="#PWR0119"  Part="1" 
F 0 "#PWR0119" H 1350 2000 50  0001 C CNN
F 1 "GND" H 1355 2077 50  0000 C CNN
F 2 "" H 1350 2250 50  0001 C CNN
F 3 "" H 1350 2250 50  0001 C CNN
	1    1350 2250
	1    0    0    -1  
$EndComp
$Comp
L LED:WS2812B D?
U 1 1 6004E380
P 2600 1950
AR Path="/6004E380" Ref="D?"  Part="1" 
AR Path="/6004A299/6004E380" Ref="D5"  Part="1" 
F 0 "D5" H 2850 2150 50  0000 L CNN
F 1 "WS2812B-MINI" H 2850 1800 50  0000 L CNN
F 2 "LED_SMD:LED_SK6812MINI_PLCC4_3.5x3.5mm_P1.75mm" H 2650 1650 50  0001 L TNN
F 3 "" H 2700 1575 50  0001 L TNN
F 4 "WS2812B-MINI" H 2600 1950 50  0001 C CNN "MPN"
F 5 "TME" H 2600 1950 50  0001 C CNN "Source"
	1    2600 1950
	1    0    0    -1  
$EndComp
$Comp
L power:+BATT #PWR?
U 1 1 6004E386
P 2600 1650
AR Path="/6004E386" Ref="#PWR?"  Part="1" 
AR Path="/6004A299/6004E386" Ref="#PWR0120"  Part="1" 
F 0 "#PWR0120" H 2600 1500 50  0001 C CNN
F 1 "+BATT" H 2615 1823 50  0000 C CNN
F 2 "" H 2600 1650 50  0001 C CNN
F 3 "" H 2600 1650 50  0001 C CNN
	1    2600 1650
	1    0    0    -1  
$EndComp
$Comp
L power:GND #PWR?
U 1 1 6004E38C
P 2600 2250
AR Path="/6004E38C" Ref="#PWR?"  Part="1" 
AR Path="/6004A299/6004E38C" Ref="#PWR0121"  Part="1" 
F 0 "#PWR0121" H 2600 2000 50  0001 C CNN
F 1 "GND" H 2605 2077 50  0000 C CNN
F 2 "" H 2600 2250 50  0001 C CNN
F 3 "" H 2600 2250 50  0001 C CNN
	1    2600 2250
	1    0    0    -1  
$EndComp
$Comp
L LED:WS2812B D?
U 1 1 6004E392
P 3800 1950
AR Path="/6004E392" Ref="D?"  Part="1" 
AR Path="/6004A299/6004E392" Ref="D7"  Part="1" 
F 0 "D7" H 4050 2150 50  0000 L CNN
F 1 "WS2812B-MINI" H 4050 1800 50  0000 L CNN
F 2 "LED_SMD:LED_SK6812MINI_PLCC4_3.5x3.5mm_P1.75mm" H 3850 1650 50  0001 L TNN
F 3 "" H 3900 1575 50  0001 L TNN
F 4 "WS2812B-MINI" H 3800 1950 50  0001 C CNN "MPN"
F 5 "TME" H 3800 1950 50  0001 C CNN "Source"
	1    3800 1950
	1    0    0    -1  
$EndComp
$Comp
L power:+BATT #PWR?
U 1 1 6004E398
P 3800 1650
AR Path="/6004E398" Ref="#PWR?"  Part="1" 
AR Path="/6004A299/6004E398" Ref="#PWR0122"  Part="1" 
F 0 "#PWR0122" H 3800 1500 50  0001 C CNN
F 1 "+BATT" H 3815 1823 50  0000 C CNN
F 2 "" H 3800 1650 50  0001 C CNN
F 3 "" H 3800 1650 50  0001 C CNN
	1    3800 1650
	1    0    0    -1  
$EndComp
$Comp
L power:GND #PWR?
U 1 1 6004E39E
P 3800 2250
AR Path="/6004E39E" Ref="#PWR?"  Part="1" 
AR Path="/6004A299/6004E39E" Ref="#PWR0123"  Part="1" 
F 0 "#PWR0123" H 3800 2000 50  0001 C CNN
F 1 "GND" H 3805 2077 50  0000 C CNN
F 2 "" H 3800 2250 50  0001 C CNN
F 3 "" H 3800 2250 50  0001 C CNN
	1    3800 2250
	1    0    0    -1  
$EndComp
$Comp
L LED:WS2812B D?
U 1 1 6004E3A4
P 5050 1950
AR Path="/6004E3A4" Ref="D?"  Part="1" 
AR Path="/6004A299/6004E3A4" Ref="D9"  Part="1" 
F 0 "D9" H 5300 2150 50  0000 L CNN
F 1 "WS2812B-MINI" H 5300 1800 50  0000 L CNN
F 2 "LED_SMD:LED_SK6812MINI_PLCC4_3.5x3.5mm_P1.75mm" H 5100 1650 50  0001 L TNN
F 3 "" H 5150 1575 50  0001 L TNN
F 4 "WS2812B-MINI" H 5050 1950 50  0001 C CNN "MPN"
F 5 "TME" H 5050 1950 50  0001 C CNN "Source"
	1    5050 1950
	1    0    0    -1  
$EndComp
$Comp
L power:+BATT #PWR?
U 1 1 6004E3AA
P 5050 1650
AR Path="/6004E3AA" Ref="#PWR?"  Part="1" 
AR Path="/6004A299/6004E3AA" Ref="#PWR0124"  Part="1" 
F 0 "#PWR0124" H 5050 1500 50  0001 C CNN
F 1 "+BATT" H 5065 1823 50  0000 C CNN
F 2 "" H 5050 1650 50  0001 C CNN
F 3 "" H 5050 1650 50  0001 C CNN
	1    5050 1650
	1    0    0    -1  
$EndComp
$Comp
L power:GND #PWR?
U 1 1 6004E3B0
P 5050 2250
AR Path="/6004E3B0" Ref="#PWR?"  Part="1" 
AR Path="/6004A299/6004E3B0" Ref="#PWR0125"  Part="1" 
F 0 "#PWR0125" H 5050 2000 50  0001 C CNN
F 1 "GND" H 5055 2077 50  0000 C CNN
F 2 "" H 5050 2250 50  0001 C CNN
F 3 "" H 5050 2250 50  0001 C CNN
	1    5050 2250
	1    0    0    -1  
$EndComp
$Comp
L LED:WS2812B D?
U 1 1 6005573C
P 6300 1950
AR Path="/6005573C" Ref="D?"  Part="1" 
AR Path="/6004A299/6005573C" Ref="D11"  Part="1" 
F 0 "D11" H 6550 2150 50  0000 L CNN
F 1 "WS2812B-MINI" H 6550 1800 50  0000 L CNN
F 2 "LED_SMD:LED_SK6812MINI_PLCC4_3.5x3.5mm_P1.75mm" H 6350 1650 50  0001 L TNN
F 3 "" H 6400 1575 50  0001 L TNN
F 4 "WS2812B-MINI" H 6300 1950 50  0001 C CNN "MPN"
F 5 "TME" H 6300 1950 50  0001 C CNN "Source"
	1    6300 1950
	1    0    0    -1  
$EndComp
$Comp
L power:+BATT #PWR?
U 1 1 60055742
P 6300 1650
AR Path="/60055742" Ref="#PWR?"  Part="1" 
AR Path="/6004A299/60055742" Ref="#PWR0126"  Part="1" 
F 0 "#PWR0126" H 6300 1500 50  0001 C CNN
F 1 "+BATT" H 6315 1823 50  0000 C CNN
F 2 "" H 6300 1650 50  0001 C CNN
F 3 "" H 6300 1650 50  0001 C CNN
	1    6300 1650
	1    0    0    -1  
$EndComp
$Comp
L power:GND #PWR?
U 1 1 60055748
P 6300 2250
AR Path="/60055748" Ref="#PWR?"  Part="1" 
AR Path="/6004A299/60055748" Ref="#PWR0127"  Part="1" 
F 0 "#PWR0127" H 6300 2000 50  0001 C CNN
F 1 "GND" H 6305 2077 50  0000 C CNN
F 2 "" H 6300 2250 50  0001 C CNN
F 3 "" H 6300 2250 50  0001 C CNN
	1    6300 2250
	1    0    0    -1  
$EndComp
$Comp
L LED:WS2812B D?
U 1 1 6005574E
P 7550 1950
AR Path="/6005574E" Ref="D?"  Part="1" 
AR Path="/6004A299/6005574E" Ref="D13"  Part="1" 
F 0 "D13" H 7800 2150 50  0000 L CNN
F 1 "WS2812B-MINI" H 7800 1800 50  0000 L CNN
F 2 "LED_SMD:LED_SK6812MINI_PLCC4_3.5x3.5mm_P1.75mm" H 7600 1650 50  0001 L TNN
F 3 "" H 7650 1575 50  0001 L TNN
F 4 "WS2812B-MINI" H 7550 1950 50  0001 C CNN "MPN"
F 5 "TME" H 7550 1950 50  0001 C CNN "Source"
	1    7550 1950
	1    0    0    -1  
$EndComp
$Comp
L power:+BATT #PWR?
U 1 1 60055754
P 7550 1650
AR Path="/60055754" Ref="#PWR?"  Part="1" 
AR Path="/6004A299/60055754" Ref="#PWR0128"  Part="1" 
F 0 "#PWR0128" H 7550 1500 50  0001 C CNN
F 1 "+BATT" H 7565 1823 50  0000 C CNN
F 2 "" H 7550 1650 50  0001 C CNN
F 3 "" H 7550 1650 50  0001 C CNN
	1    7550 1650
	1    0    0    -1  
$EndComp
$Comp
L power:GND #PWR?
U 1 1 6005575A
P 7550 2250
AR Path="/6005575A" Ref="#PWR?"  Part="1" 
AR Path="/6004A299/6005575A" Ref="#PWR0129"  Part="1" 
F 0 "#PWR0129" H 7550 2000 50  0001 C CNN
F 1 "GND" H 7555 2077 50  0000 C CNN
F 2 "" H 7550 2250 50  0001 C CNN
F 3 "" H 7550 2250 50  0001 C CNN
	1    7550 2250
	1    0    0    -1  
$EndComp
$Comp
L LED:WS2812B D?
U 1 1 60055760
P 8750 1950
AR Path="/60055760" Ref="D?"  Part="1" 
AR Path="/6004A299/60055760" Ref="D15"  Part="1" 
F 0 "D15" H 9000 2150 50  0000 L CNN
F 1 "WS2812B-MINI" H 9000 1800 50  0000 L CNN
F 2 "LED_SMD:LED_SK6812MINI_PLCC4_3.5x3.5mm_P1.75mm" H 8800 1650 50  0001 L TNN
F 3 "" H 8850 1575 50  0001 L TNN
F 4 "WS2812B-MINI" H 8750 1950 50  0001 C CNN "MPN"
F 5 "TME" H 8750 1950 50  0001 C CNN "Source"
	1    8750 1950
	1    0    0    -1  
$EndComp
$Comp
L power:+BATT #PWR?
U 1 1 60055766
P 8750 1650
AR Path="/60055766" Ref="#PWR?"  Part="1" 
AR Path="/6004A299/60055766" Ref="#PWR0130"  Part="1" 
F 0 "#PWR0130" H 8750 1500 50  0001 C CNN
F 1 "+BATT" H 8765 1823 50  0000 C CNN
F 2 "" H 8750 1650 50  0001 C CNN
F 3 "" H 8750 1650 50  0001 C CNN
	1    8750 1650
	1    0    0    -1  
$EndComp
$Comp
L power:GND #PWR?
U 1 1 6005576C
P 8750 2250
AR Path="/6005576C" Ref="#PWR?"  Part="1" 
AR Path="/6004A299/6005576C" Ref="#PWR0131"  Part="1" 
F 0 "#PWR0131" H 8750 2000 50  0001 C CNN
F 1 "GND" H 8755 2077 50  0000 C CNN
F 2 "" H 8750 2250 50  0001 C CNN
F 3 "" H 8750 2250 50  0001 C CNN
	1    8750 2250
	1    0    0    -1  
$EndComp
$Comp
L LED:WS2812B D?
U 1 1 60055772
P 10000 1950
AR Path="/60055772" Ref="D?"  Part="1" 
AR Path="/6004A299/60055772" Ref="D17"  Part="1" 
F 0 "D17" H 10250 2150 50  0000 L CNN
F 1 "WS2812B-MINI" H 10250 1800 50  0000 L CNN
F 2 "LED_SMD:LED_SK6812MINI_PLCC4_3.5x3.5mm_P1.75mm" H 10050 1650 50  0001 L TNN
F 3 "" H 10100 1575 50  0001 L TNN
F 4 "WS2812B-MINI" H 10000 1950 50  0001 C CNN "MPN"
F 5 "TME" H 10000 1950 50  0001 C CNN "Source"
	1    10000 1950
	1    0    0    -1  
$EndComp
$Comp
L power:+BATT #PWR?
U 1 1 60055778
P 10000 1650
AR Path="/60055778" Ref="#PWR?"  Part="1" 
AR Path="/6004A299/60055778" Ref="#PWR0132"  Part="1" 
F 0 "#PWR0132" H 10000 1500 50  0001 C CNN
F 1 "+BATT" H 10015 1823 50  0000 C CNN
F 2 "" H 10000 1650 50  0001 C CNN
F 3 "" H 10000 1650 50  0001 C CNN
	1    10000 1650
	1    0    0    -1  
$EndComp
$Comp
L power:GND #PWR?
U 1 1 6005577E
P 10000 2250
AR Path="/6005577E" Ref="#PWR?"  Part="1" 
AR Path="/6004A299/6005577E" Ref="#PWR0133"  Part="1" 
F 0 "#PWR0133" H 10000 2000 50  0001 C CNN
F 1 "GND" H 10005 2077 50  0000 C CNN
F 2 "" H 10000 2250 50  0001 C CNN
F 3 "" H 10000 2250 50  0001 C CNN
	1    10000 2250
	1    0    0    -1  
$EndComp
$Comp
L LED:WS2812B D?
U 1 1 6005BC1E
P 1350 3850
AR Path="/6005BC1E" Ref="D?"  Part="1" 
AR Path="/6004A299/6005BC1E" Ref="D4"  Part="1" 
F 0 "D4" H 1600 4050 50  0000 L CNN
F 1 "WS2812B-MINI" H 1600 3700 50  0000 L CNN
F 2 "LED_SMD:LED_SK6812MINI_PLCC4_3.5x3.5mm_P1.75mm" H 1400 3550 50  0001 L TNN
F 3 "" H 1450 3475 50  0001 L TNN
F 4 "WS2812B-MINI" H 1350 3850 50  0001 C CNN "MPN"
F 5 "TME" H 1350 3850 50  0001 C CNN "Source"
	1    1350 3850
	1    0    0    -1  
$EndComp
$Comp
L power:+BATT #PWR?
U 1 1 6005BC24
P 1350 3550
AR Path="/6005BC24" Ref="#PWR?"  Part="1" 
AR Path="/6004A299/6005BC24" Ref="#PWR0134"  Part="1" 
F 0 "#PWR0134" H 1350 3400 50  0001 C CNN
F 1 "+BATT" H 1365 3723 50  0000 C CNN
F 2 "" H 1350 3550 50  0001 C CNN
F 3 "" H 1350 3550 50  0001 C CNN
	1    1350 3550
	1    0    0    -1  
$EndComp
$Comp
L power:GND #PWR?
U 1 1 6005BC2A
P 1350 4150
AR Path="/6005BC2A" Ref="#PWR?"  Part="1" 
AR Path="/6004A299/6005BC2A" Ref="#PWR0135"  Part="1" 
F 0 "#PWR0135" H 1350 3900 50  0001 C CNN
F 1 "GND" H 1355 3977 50  0000 C CNN
F 2 "" H 1350 4150 50  0001 C CNN
F 3 "" H 1350 4150 50  0001 C CNN
	1    1350 4150
	1    0    0    -1  
$EndComp
$Comp
L LED:WS2812B D?
U 1 1 6005BC30
P 2600 3850
AR Path="/6005BC30" Ref="D?"  Part="1" 
AR Path="/6004A299/6005BC30" Ref="D6"  Part="1" 
F 0 "D6" H 2850 4050 50  0000 L CNN
F 1 "WS2812B-MINI" H 2850 3700 50  0000 L CNN
F 2 "LED_SMD:LED_SK6812MINI_PLCC4_3.5x3.5mm_P1.75mm" H 2650 3550 50  0001 L TNN
F 3 "" H 2700 3475 50  0001 L TNN
F 4 "WS2812B-MINI" H 2600 3850 50  0001 C CNN "MPN"
F 5 "TME" H 2600 3850 50  0001 C CNN "Source"
	1    2600 3850
	1    0    0    -1  
$EndComp
$Comp
L power:+BATT #PWR?
U 1 1 6005BC36
P 2600 3550
AR Path="/6005BC36" Ref="#PWR?"  Part="1" 
AR Path="/6004A299/6005BC36" Ref="#PWR0136"  Part="1" 
F 0 "#PWR0136" H 2600 3400 50  0001 C CNN
F 1 "+BATT" H 2615 3723 50  0000 C CNN
F 2 "" H 2600 3550 50  0001 C CNN
F 3 "" H 2600 3550 50  0001 C CNN
	1    2600 3550
	1    0    0    -1  
$EndComp
$Comp
L power:GND #PWR?
U 1 1 6005BC3C
P 2600 4150
AR Path="/6005BC3C" Ref="#PWR?"  Part="1" 
AR Path="/6004A299/6005BC3C" Ref="#PWR0137"  Part="1" 
F 0 "#PWR0137" H 2600 3900 50  0001 C CNN
F 1 "GND" H 2605 3977 50  0000 C CNN
F 2 "" H 2600 4150 50  0001 C CNN
F 3 "" H 2600 4150 50  0001 C CNN
	1    2600 4150
	1    0    0    -1  
$EndComp
Wire Wire Line
	1650 1950 2300 1950
Wire Wire Line
	2900 1950 3500 1950
Wire Wire Line
	4100 1950 4750 1950
Wire Wire Line
	5350 1950 6000 1950
Wire Wire Line
	6600 1950 7250 1950
Wire Wire Line
	7850 1950 8450 1950
Wire Wire Line
	9050 1950 9700 1950
Wire Wire Line
	10300 1950 10950 1950
Wire Wire Line
	10950 1950 10950 3050
Wire Wire Line
	10950 3050 750  3050
Wire Wire Line
	750  3050 750  3850
Wire Wire Line
	750  3850 1050 3850
Wire Wire Line
	1650 3850 2300 3850
Wire Wire Line
	2900 3850 3250 3850
$Comp
L Connector:TestPoint TP1
U 1 1 60072A78
P 3250 3850
F 0 "TP1" H 3308 3968 50  0000 L CNN
F 1 "DOUT" H 3308 3877 50  0000 L CNN
F 2 "TestPoint:TestPoint_Keystone_5019_Minature" H 3450 3850 50  0001 C CNN
F 3 "~" H 3450 3850 50  0001 C CNN
	1    3250 3850
	1    0    0    -1  
$EndComp
Text HLabel 1050 1950 0    50   Input ~ 0
DIN
$EndSCHEMATC
