EESchema Schematic File Version 4
EELAYER 30 0
EELAYER END
$Descr A4 11693 8268
encoding utf-8
Sheet 3 3
Title ""
Date ""
Rev ""
Comp ""
Comment1 ""
Comment2 ""
Comment3 ""
Comment4 ""
$EndDescr
$Comp
L IRA-S210ST01:IRA-S210ST01 A?
U 1 1 600D0178
P 1900 2600
AR Path="/600D0178" Ref="A?"  Part="1" 
AR Path="/600B9BE2/600D0178" Ref="A1"  Part="1" 
F 0 "A1" H 2007 3067 50  0000 C CNN
F 1 "IRA-S210ST01" H 2007 2976 50  0000 C CNN
F 2 "TO254P940H490-3" H 1900 2600 50  0001 L BNN
F 3 "" H 1900 2600 50  0001 L BNN
F 4 "" H 1900 2600 50  0001 L BNN "MF"
F 5 "Radial Murata" H 1900 2600 50  0001 L BNN "Package"
F 6 "None" H 1900 2600 50  0001 L BNN "Price"
F 7 "" H 1900 2600 50  0001 L BNN "Availability"
F 8 "" H 1900 2600 50  0001 L BNN "Description"
F 9 "IRA-S210ST01" H 1900 2600 50  0001 L BNN "MPN"
F 10 "Farnell" H 1900 2600 50  0001 C CNN "Source"
F 11 "2707445" H 1900 2600 50  0001 C CNN "Farnell No."
	1    1900 2600
	1    0    0    -1  
$EndComp
Text Notes 1250 1800 0    100  ~ 0
PIR Sensor
$Comp
L Murata-IML-0685:IML-0685 MP?
U 1 1 600D0191
P 1850 4250
AR Path="/600D0191" Ref="MP?"  Part="1" 
AR Path="/600B9BE2/600D0191" Ref="MP1"  Part="1" 
F 0 "MP1" H 2378 4296 50  0000 L CNN
F 1 "IML-0685" H 2378 4205 50  0000 L CNN
F 2 "Footprints:Murata-IML-0685-MFG" H 1850 4950 50  0001 L CNN
F 3 "https://www.murata.com/en-us/products/productdetail.aspx?cate=luFresnellens&partno=IML-0685" H 1850 5050 50  0001 L CNN
F 4 "No" H 1850 5150 50  0001 L CNN "automotive"
F 5 "UNK" H 1850 5250 50  0001 L CNN "category"
F 6 "Sensors" H 1850 5350 50  0001 L CNN "device class L1"
F 7 "unset" H 1850 5450 50  0001 L CNN "device class L2"
F 8 "unset" H 1850 5550 50  0001 L CNN "device class L3"
F 9 "LENS FOR IRA-S210ST01" H 1850 5650 50  0001 L CNN "digikey description"
F 10 "490-12568-ND" H 1850 5750 50  0001 L CNN "digikey part number"
F 11 "8.75mm" H 1850 5850 50  0001 L CNN "height"
F 12 "Yes" H 1850 5950 50  0001 L CNN "lead free"
F 13 "523318d86b7d3df4" H 1850 6050 50  0001 L CNN "library id"
F 14 "Murata" H 1850 6150 50  0001 L CNN "manufacturer"
F 15 "Sensor Hardware & Accessories Fresnel Lens for IRA-S series" H 1850 6250 50  0001 L CNN "mouser description"
F 16 "81-IML-0685" H 1850 6350 50  0001 L CNN "mouser part number"
F 17 "LENS_IRA-S" H 1850 6450 50  0001 L CNN "package"
F 18 "Yes" H 1850 6550 50  0001 L CNN "rohs"
F 19 "+60°C" H 1850 6650 50  0001 L CNN "temperature range high"
F 20 "-25°C" H 1850 6750 50  0001 L CNN "temperature range low"
F 21 "Farnell" H 1850 4250 50  0001 C CNN "Source"
F 22 "IML-0685" H 1850 4250 50  0001 C CNN "MPN"
F 23 "2707443" H 1850 4250 50  0001 C CNN "Farnell No."
	1    1850 4250
	1    0    0    -1  
$EndComp
$Comp
L TLV8544:TLV8544 U?
U 1 1 600D0197
P 4050 2700
AR Path="/600D0197" Ref="U?"  Part="1" 
AR Path="/600B9BE2/600D0197" Ref="U3"  Part="1" 
F 0 "U3" H 4100 3227 100 0000 C CNN
F 1 "TLV8544" H 4100 3061 100 0000 C CNN
F 2 "Package_SO:SOIC-14_3.9x8.7mm_P1.27mm" H 3800 2950 100 0001 C CNN
F 3 "" H 3800 2950 100 0001 C CNN
F 4 "TLV8544DT" H 4050 2700 50  0001 C CNN "MPN"
F 5 "Farnell" H 4050 2700 50  0001 C CNN "Source"
F 6 "2894191" H 4050 2700 50  0001 C CNN "Farnell No."
	1    4050 2700
	1    0    0    -1  
$EndComp
$Comp
L TLV8544:TLV8544 U?
U 2 1 600D019D
P 6200 2800
AR Path="/600D019D" Ref="U?"  Part="2" 
AR Path="/600B9BE2/600D019D" Ref="U3"  Part="2" 
F 0 "U3" H 6250 3327 100 0000 C CNN
F 1 "TLV8544" H 6250 3161 100 0000 C CNN
F 2 "Package_SO:SOIC-14_3.9x8.7mm_P1.27mm" H 5950 3050 100 0001 C CNN
F 3 "" H 5950 3050 100 0001 C CNN
F 4 "TLV8544DT" H 6200 2800 50  0001 C CNN "MPN"
F 5 "Farnell" H 6200 2800 50  0001 C CNN "Source"
F 6 "2894191" H 6200 2800 50  0001 C CNN "Farnell No."
	2    6200 2800
	1    0    0    -1  
$EndComp
$Comp
L TLV8544:TLV8544 U?
U 3 1 600D01A3
P 8800 2300
AR Path="/600D01A3" Ref="U?"  Part="3" 
AR Path="/600B9BE2/600D01A3" Ref="U3"  Part="3" 
F 0 "U3" H 8850 2827 100 0000 C CNN
F 1 "TLV8544" H 8850 2661 100 0000 C CNN
F 2 "Package_SO:SOIC-14_3.9x8.7mm_P1.27mm" H 8550 2550 100 0001 C CNN
F 3 "" H 8550 2550 100 0001 C CNN
F 4 "TLV8544DT" H 8800 2300 50  0001 C CNN "MPN"
F 5 "Farnell" H 8800 2300 50  0001 C CNN "Source"
F 6 "2894191" H 8800 2300 50  0001 C CNN "Farnell No."
	3    8800 2300
	1    0    0    -1  
$EndComp
$Comp
L TLV8544:TLV8544 U?
U 4 1 600D01A9
P 8800 3400
AR Path="/600D01A9" Ref="U?"  Part="4" 
AR Path="/600B9BE2/600D01A9" Ref="U3"  Part="4" 
F 0 "U3" H 8850 3927 100 0000 C CNN
F 1 "TLV8544" H 8850 3761 100 0000 C CNN
F 2 "Package_SO:SOIC-14_3.9x8.7mm_P1.27mm" H 8550 3650 100 0001 C CNN
F 3 "" H 8550 3650 100 0001 C CNN
F 4 "TLV8544DT" H 8800 3400 50  0001 C CNN "MPN"
F 5 "Farnell" H 8800 3400 50  0001 C CNN "Source"
F 6 "2894191" H 8800 3400 50  0001 C CNN "Farnell No."
	4    8800 3400
	1    0    0    -1  
$EndComp
$Comp
L TLV8544:TLV8544 U?
U 5 1 600D01AF
P 5850 4950
AR Path="/600D01AF" Ref="U?"  Part="5" 
AR Path="/600B9BE2/600D01AF" Ref="U3"  Part="5" 
F 0 "U3" H 5908 5033 100 0000 L CNN
F 1 "TLV8544" H 5908 4867 100 0000 L CNN
F 2 "Package_SO:SOIC-14_3.9x8.7mm_P1.27mm" H 5600 5200 100 0001 C CNN
F 3 "" H 5600 5200 100 0001 C CNN
F 4 "TLV8544DT" H 5850 4950 50  0001 C CNN "MPN"
F 5 "Farnell" H 5850 4950 50  0001 C CNN "Source"
F 6 "2894191" H 5850 4950 50  0001 C CNN "Farnell No."
	5    5850 4950
	1    0    0    -1  
$EndComp
$Comp
L Device:R R?
U 1 1 600D01B5
P 2700 2800
AR Path="/600D01B5" Ref="R?"  Part="1" 
AR Path="/600B9BE2/600D01B5" Ref="R5"  Part="1" 
F 0 "R5" H 2770 2846 50  0000 L CNN
F 1 "1.3M" H 2770 2755 50  0000 L CNN
F 2 "Resistor_SMD:R_0603_1608Metric" V 2630 2800 50  0001 C CNN
F 3 "~" H 2700 2800 50  0001 C CNN
F 4 "CRCW06031M30FKEA" H 2700 2800 50  0001 C CNN "MPN"
F 5 "Farnell" H 2700 2800 50  0001 C CNN "Source"
F 6 "2138620" H 2700 2800 50  0001 C CNN "Farnell No."
	1    2700 2800
	1    0    0    -1  
$EndComp
$Comp
L power:GND #PWR?
U 1 1 600D01BB
P 2600 3000
AR Path="/600D01BB" Ref="#PWR?"  Part="1" 
AR Path="/600B9BE2/600D01BB" Ref="#PWR0150"  Part="1" 
F 0 "#PWR0150" H 2600 2750 50  0001 C CNN
F 1 "GND" H 2605 2827 50  0000 C CNN
F 2 "" H 2600 3000 50  0001 C CNN
F 3 "" H 2600 3000 50  0001 C CNN
	1    2600 3000
	1    0    0    -1  
$EndComp
Wire Wire Line
	2700 2950 2700 3000
Wire Wire Line
	2700 3000 2600 3000
Wire Wire Line
	2500 2800 2500 3000
Connection ~ 2600 3000
Wire Wire Line
	2600 3000 2500 3000
Wire Wire Line
	2700 2650 2700 2600
Wire Wire Line
	2700 2600 2500 2600
$Comp
L Device:CP C?
U 1 1 600D01C8
P 2950 2200
AR Path="/600D01C8" Ref="C?"  Part="1" 
AR Path="/600B9BE2/600D01C8" Ref="CP2"  Part="1" 
F 0 "CP2" H 3068 2246 50  0000 L CNN
F 1 "100u" H 3068 2155 50  0000 L CNN
F 2 "Capacitor_SMD:CP_Elec_6.3x5.9" H 2988 2050 50  0001 C CNN
F 3 "~" H 2950 2200 50  0001 C CNN
F 4 "EEE0JA101SP" H 2950 2200 50  0001 C CNN "MPN"
F 5 "Farnell" H 2950 2200 50  0001 C CNN "Source"
F 6 "9696903" H 2950 2200 50  0001 C CNN "Farnell No."
	1    2950 2200
	1    0    0    -1  
$EndComp
$Comp
L Device:R R?
U 1 1 600D01CE
P 2650 1800
AR Path="/600D01CE" Ref="R?"  Part="1" 
AR Path="/600B9BE2/600D01CE" Ref="R4"  Part="1" 
F 0 "R4" H 2720 1846 50  0000 L CNN
F 1 "619k" H 2720 1755 50  0000 L CNN
F 2 "Resistor_SMD:R_0603_1608Metric" V 2580 1800 50  0001 C CNN
F 3 "~" H 2650 1800 50  0001 C CNN
F 4 "ERJ3EKF6193V" H 2650 1800 50  0001 C CNN "MPN"
F 5 "Farnell" H 2650 1800 50  0001 C CNN "Source"
F 6 "2303301" H 2650 1800 50  0001 C CNN "Farnell No."
	1    2650 1800
	1    0    0    -1  
$EndComp
$Comp
L power:+BATT #PWR?
U 1 1 600D01D4
P 2650 1650
AR Path="/600D01D4" Ref="#PWR?"  Part="1" 
AR Path="/600B9BE2/600D01D4" Ref="#PWR0151"  Part="1" 
F 0 "#PWR0151" H 2650 1500 50  0001 C CNN
F 1 "+BATT" H 2665 1823 50  0000 C CNN
F 2 "" H 2650 1650 50  0001 C CNN
F 3 "" H 2650 1650 50  0001 C CNN
	1    2650 1650
	1    0    0    -1  
$EndComp
$Comp
L power:GND #PWR?
U 1 1 600D01DA
P 2950 2350
AR Path="/600D01DA" Ref="#PWR?"  Part="1" 
AR Path="/600B9BE2/600D01DA" Ref="#PWR0152"  Part="1" 
F 0 "#PWR0152" H 2950 2100 50  0001 C CNN
F 1 "GND" H 2955 2177 50  0000 C CNN
F 2 "" H 2950 2350 50  0001 C CNN
F 3 "" H 2950 2350 50  0001 C CNN
	1    2950 2350
	1    0    0    -1  
$EndComp
Wire Wire Line
	2650 1950 2650 2000
Wire Wire Line
	2650 2000 2950 2000
Wire Wire Line
	2950 2000 2950 2050
Wire Wire Line
	2500 2400 2650 2400
Wire Wire Line
	2650 2400 2650 2000
Connection ~ 2650 2000
$Comp
L Device:C C?
U 1 1 600D01E6
P 5450 4950
AR Path="/600D01E6" Ref="C?"  Part="1" 
AR Path="/600B9BE2/600D01E6" Ref="C9"  Part="1" 
F 0 "C9" H 5565 4996 50  0000 L CNN
F 1 "100n" H 5565 4905 50  0000 L CNN
F 2 "Capacitor_SMD:C_0603_1608Metric" H 5488 4800 50  0001 C CNN
F 3 "~" H 5450 4950 50  0001 C CNN
F 4 "06033C104KAT4A" H 5450 4950 50  0001 C CNN "MPN"
F 5 "Farnell" H 5450 4950 50  0001 C CNN "Source"
F 6 "2332586" H 5450 4950 50  0001 C CNN "Farnell No."
	1    5450 4950
	1    0    0    -1  
$EndComp
$Comp
L power:GND #PWR?
U 1 1 600D01EC
P 5850 5350
AR Path="/600D01EC" Ref="#PWR?"  Part="1" 
AR Path="/600B9BE2/600D01EC" Ref="#PWR0153"  Part="1" 
F 0 "#PWR0153" H 5850 5100 50  0001 C CNN
F 1 "GND" H 5855 5177 50  0000 C CNN
F 2 "" H 5850 5350 50  0001 C CNN
F 3 "" H 5850 5350 50  0001 C CNN
	1    5850 5350
	1    0    0    -1  
$EndComp
$Comp
L power:+BATT #PWR?
U 1 1 600D01F2
P 5850 4550
AR Path="/600D01F2" Ref="#PWR?"  Part="1" 
AR Path="/600B9BE2/600D01F2" Ref="#PWR0154"  Part="1" 
F 0 "#PWR0154" H 5850 4400 50  0001 C CNN
F 1 "+BATT" H 5865 4723 50  0000 C CNN
F 2 "" H 5850 4550 50  0001 C CNN
F 3 "" H 5850 4550 50  0001 C CNN
	1    5850 4550
	1    0    0    -1  
$EndComp
Wire Wire Line
	5850 4550 5850 4600
Wire Wire Line
	5850 4600 5450 4600
Connection ~ 5850 4600
Wire Wire Line
	5850 4600 5850 4650
Wire Wire Line
	5850 5250 5850 5300
Wire Wire Line
	5850 5300 5450 5300
Connection ~ 5850 5300
Wire Wire Line
	5850 5300 5850 5350
Wire Wire Line
	5450 5100 5450 5300
Wire Wire Line
	5450 4600 5450 4800
$Comp
L Device:R R?
U 1 1 600D0202
P 4100 3200
AR Path="/600D0202" Ref="R?"  Part="1" 
AR Path="/600B9BE2/600D0202" Ref="R7"  Part="1" 
F 0 "R7" V 3893 3200 50  0000 C CNN
F 1 "1.5M" V 3984 3200 50  0000 C CNN
F 2 "Resistor_SMD:R_0603_1608Metric" V 4030 3200 50  0001 C CNN
F 3 "~" H 4100 3200 50  0001 C CNN
F 4 "MCWR06W1504FTL" H 4100 3200 50  0001 C CNN "MPN"
F 5 "Farnell" H 4100 3200 50  0001 C CNN "Source"
F 6 "2447287" H 4100 3200 50  0001 C CNN "Farnell No."
	1    4100 3200
	0    1    1    0   
$EndComp
$Comp
L Device:C C?
U 1 1 600D0208
P 4100 3600
AR Path="/600D0208" Ref="C?"  Part="1" 
AR Path="/600B9BE2/600D0208" Ref="C6"  Part="1" 
F 0 "C6" V 3848 3600 50  0000 C CNN
F 1 "10n" V 3939 3600 50  0000 C CNN
F 2 "Capacitor_SMD:C_0603_1608Metric" H 4138 3450 50  0001 C CNN
F 3 "~" H 4100 3600 50  0001 C CNN
F 4 "CGA3E2X7R1H103K080AA" H 4100 3600 50  0001 C CNN "MPN"
F 5 "Farnell" H 4100 3600 50  0001 C CNN "Source"
F 6 "2346966" H 4100 3600 50  0001 C CNN "Farnell No."
	1    4100 3600
	0    1    1    0   
$EndComp
$Comp
L Device:D D?
U 1 1 600D0210
P 4100 4350
AR Path="/600D0210" Ref="D?"  Part="1" 
AR Path="/600B9BE2/600D0210" Ref="D20"  Part="1" 
F 0 "D20" H 4100 4133 50  0000 C CNN
F 1 "1N4148X-TP" H 4100 4224 50  0000 C CNN
F 2 "Diode_SMD:D_SOD-523" H 4100 4350 50  0001 C CNN
F 3 "~" H 4100 4350 50  0001 C CNN
F 4 "1N4148X-TP" H 4100 4350 50  0001 C CNN "MPN"
F 5 "TME" H 4100 4350 50  0001 C CNN "Source"
	1    4100 4350
	-1   0    0    1   
$EndComp
$Comp
L Device:R R?
U 1 1 600D0216
P 3700 4650
AR Path="/600D0216" Ref="R?"  Part="1" 
AR Path="/600B9BE2/600D0216" Ref="R6"  Part="1" 
F 0 "R6" H 3630 4604 50  0000 R CNN
F 1 "6.81k" H 3630 4695 50  0000 R CNN
F 2 "Resistor_SMD:R_0603_1608Metric" V 3630 4650 50  0001 C CNN
F 3 "~" H 3700 4650 50  0001 C CNN
F 4 "CRCW06036K81FKEA" H 3700 4650 50  0001 C CNN "MPN"
F 5 "Farnell" H 3700 4650 50  0001 C CNN "Source"
F 6 "1652899" H 3700 4650 50  0001 C CNN "Farnell No."
	1    3700 4650
	-1   0    0    1   
$EndComp
$Comp
L Device:C C?
U 1 1 600D021C
P 3700 4950
AR Path="/600D021C" Ref="C?"  Part="1" 
AR Path="/600B9BE2/600D021C" Ref="C5"  Part="1" 
F 0 "C5" H 3585 4904 50  0000 R CNN
F 1 "33u" H 3585 4995 50  0000 R CNN
F 2 "Capacitor_SMD:CP_Elec_5x5.4" H 3738 4800 50  0001 C CNN
F 3 "~" H 3700 4950 50  0001 C CNN
F 4 "EEE1AA330SR" H 3700 4950 50  0001 C CNN "MPN"
F 5 "Farnell" H 3700 4950 50  0001 C CNN "Source"
F 6 "9696911" H 3700 4950 50  0001 C CNN "Farnell No."
	1    3700 4950
	-1   0    0    1   
$EndComp
$Comp
L power:GND #PWR?
U 1 1 600D0222
P 3700 5100
AR Path="/600D0222" Ref="#PWR?"  Part="1" 
AR Path="/600B9BE2/600D0222" Ref="#PWR0155"  Part="1" 
F 0 "#PWR0155" H 3700 4850 50  0001 C CNN
F 1 "GND" H 3705 4927 50  0000 C CNN
F 2 "" H 3700 5100 50  0001 C CNN
F 3 "" H 3700 5100 50  0001 C CNN
	1    3700 5100
	1    0    0    -1  
$EndComp
$Comp
L Device:D D?
U 1 1 600D022A
P 4100 4000
AR Path="/600D022A" Ref="D?"  Part="1" 
AR Path="/600B9BE2/600D022A" Ref="D19"  Part="1" 
F 0 "D19" H 4100 4217 50  0000 C CNN
F 1 "1N4148X-TP" H 4100 4126 50  0000 C CNN
F 2 "Diode_SMD:D_SOD-523" H 4100 4000 50  0001 C CNN
F 3 "~" H 4100 4000 50  0001 C CNN
F 4 "1N4148X-TP" H 4100 4000 50  0001 C CNN "MPN"
F 5 "TME" H 4100 4000 50  0001 C CNN "Source"
	1    4100 4000
	1    0    0    -1  
$EndComp
Wire Wire Line
	3950 3200 3700 3200
Wire Wire Line
	3950 3600 3700 3600
Wire Wire Line
	3700 2800 3700 3200
Wire Wire Line
	3700 2800 3750 2800
Connection ~ 3700 3200
Wire Wire Line
	3700 3200 3700 3600
Wire Wire Line
	3700 3600 3700 4000
Connection ~ 3700 3600
Wire Wire Line
	3950 4000 3700 4000
Connection ~ 3700 4000
Wire Wire Line
	3700 4000 3700 4350
Wire Wire Line
	3950 4350 3700 4350
Connection ~ 3700 4350
Wire Wire Line
	3700 4350 3700 4500
Wire Wire Line
	4450 2700 4500 2700
Wire Wire Line
	4500 2700 4500 3200
Wire Wire Line
	4500 4350 4250 4350
Wire Wire Line
	4250 4000 4500 4000
Connection ~ 4500 4000
Wire Wire Line
	4500 4000 4500 4350
Wire Wire Line
	4250 3600 4500 3600
Connection ~ 4500 3600
Wire Wire Line
	4500 3600 4500 4000
Wire Wire Line
	4250 3200 4500 3200
Connection ~ 4500 3200
Wire Wire Line
	4500 3200 4500 3600
Wire Wire Line
	3750 2600 2700 2600
Connection ~ 2700 2600
Wire Notes Line
	3400 5550 4850 5550
Wire Notes Line
	4850 1900 3400 1900
Wire Notes Line
	3400 1900 3400 5550
$Comp
L Device:C C?
U 1 1 600D024F
P 5400 1900
AR Path="/600D024F" Ref="C?"  Part="1" 
AR Path="/600B9BE2/600D024F" Ref="C8"  Part="1" 
F 0 "C8" H 5515 1946 50  0000 L CNN
F 1 "100n" H 5515 1855 50  0000 L CNN
F 2 "Capacitor_SMD:C_0603_1608Metric" H 5438 1750 50  0001 C CNN
F 3 "~" H 5400 1900 50  0001 C CNN
F 4 "06033C104KAT4A" H 5400 1900 50  0001 C CNN "MPN"
F 5 "Farnell" H 5400 1900 50  0001 C CNN "Source"
F 6 "2332586" H 5400 1900 50  0001 C CNN "Farnell No."
	1    5400 1900
	1    0    0    -1  
$EndComp
$Comp
L power:GND #PWR?
U 1 1 600D0255
P 5400 2050
AR Path="/600D0255" Ref="#PWR?"  Part="1" 
AR Path="/600B9BE2/600D0255" Ref="#PWR0156"  Part="1" 
F 0 "#PWR0156" H 5400 1800 50  0001 C CNN
F 1 "GND" H 5405 1877 50  0000 C CNN
F 2 "" H 5400 2050 50  0001 C CNN
F 3 "" H 5400 2050 50  0001 C CNN
	1    5400 2050
	1    0    0    -1  
$EndComp
$Comp
L Device:C C?
U 1 1 600D025B
P 5100 2700
AR Path="/600D025B" Ref="C?"  Part="1" 
AR Path="/600B9BE2/600D025B" Ref="C7"  Part="1" 
F 0 "C7" V 4848 2700 50  0000 C CNN
F 1 "3.3u" V 4939 2700 50  0000 C CNN
F 2 "Capacitor_SMD:C_0603_1608Metric" H 5138 2550 50  0001 C CNN
F 3 "~" H 5100 2700 50  0001 C CNN
F 4 "" H 5100 2700 50  0001 C CNN "MPN"
F 5 "ETA" H 5100 2700 50  0001 C CNN "Source"
F 6 "" H 5100 2700 50  0001 C CNN "Farnell No."
	1    5100 2700
	0    1    1    0   
$EndComp
$Comp
L Device:R R?
U 1 1 600D0261
P 5500 2700
AR Path="/600D0261" Ref="R?"  Part="1" 
AR Path="/600B9BE2/600D0261" Ref="R8"  Part="1" 
F 0 "R8" V 5293 2700 50  0000 C CNN
F 1 "68.1k" V 5384 2700 50  0000 C CNN
F 2 "Resistor_SMD:R_0603_1608Metric" V 5430 2700 50  0001 C CNN
F 3 "~" H 5500 2700 50  0001 C CNN
F 4 "CRCW060368K1FKEA" H 5500 2700 50  0001 C CNN "MPN"
F 5 "Farnell" H 5500 2700 50  0001 C CNN "Source"
F 6 "2138482" H 5500 2700 50  0001 C CNN "Farnell No."
	1    5500 2700
	0    1    1    0   
$EndComp
Wire Wire Line
	5800 2700 5900 2700
Wire Wire Line
	4950 2700 4500 2700
Connection ~ 4500 2700
Wire Wire Line
	5350 2700 5250 2700
Wire Wire Line
	5800 2700 5650 2700
Connection ~ 5800 2700
Wire Wire Line
	5400 1750 5400 1700
Wire Wire Line
	5400 1700 5800 1700
Wire Wire Line
	5800 1700 5800 2700
$Comp
L Device:R R?
U 1 1 600D0270
P 6200 3350
AR Path="/600D0270" Ref="R?"  Part="1" 
AR Path="/600B9BE2/600D0270" Ref="R9"  Part="1" 
F 0 "R9" V 5993 3350 50  0000 C CNN
F 1 "15M" V 6084 3350 50  0000 C CNN
F 2 "Resistor_SMD:R_0603_1608Metric" V 6130 3350 50  0001 C CNN
F 3 "~" H 6200 3350 50  0001 C CNN
F 4 "" H 6200 3350 50  0001 C CNN "MPN"
F 5 "" H 6200 3350 50  0001 C CNN "Source"
F 6 "" H 6200 3350 50  0001 C CNN "Farnell No."
	1    6200 3350
	0    1    1    0   
$EndComp
$Comp
L Device:C C?
U 1 1 600D0276
P 6200 3750
AR Path="/600D0276" Ref="C?"  Part="1" 
AR Path="/600B9BE2/600D0276" Ref="C10"  Part="1" 
F 0 "C10" V 5948 3750 50  0000 C CNN
F 1 "1n" V 6039 3750 50  0000 C CNN
F 2 "Capacitor_SMD:C_0603_1608Metric" H 6238 3600 50  0001 C CNN
F 3 "~" H 6200 3750 50  0001 C CNN
F 4 "C1812C102KGRACTU" H 6200 3750 50  0001 C CNN "MPN"
F 5 "Farnell" H 6200 3750 50  0001 C CNN "Source"
F 6 "1288249" H 6200 3750 50  0001 C CNN "Farnell No."
	1    6200 3750
	0    1    1    0   
$EndComp
Wire Wire Line
	5900 2900 5800 2900
Wire Wire Line
	5800 3750 6050 3750
Wire Wire Line
	5800 2900 5800 3350
Wire Wire Line
	6050 3350 5800 3350
Connection ~ 5800 3350
Wire Wire Line
	5800 3350 5800 3750
Wire Wire Line
	6600 2800 6650 2800
Wire Wire Line
	6650 2800 6650 3350
Wire Wire Line
	6650 3350 6350 3350
Wire Wire Line
	6350 3750 6650 3750
Wire Wire Line
	6650 3750 6650 3350
Connection ~ 6650 3350
Wire Notes Line
	4850 4050 6900 4050
Wire Notes Line
	4850 1450 4850 5550
Wire Wire Line
	8500 2400 8350 2400
Wire Wire Line
	8350 2400 8350 2800
Wire Wire Line
	8350 3300 8500 3300
Wire Wire Line
	6650 2800 8350 2800
Connection ~ 6650 2800
Connection ~ 8350 2800
Wire Wire Line
	8350 2800 8350 3300
Wire Wire Line
	7950 2250 7950 2200
Wire Wire Line
	7950 2200 8500 2200
$Comp
L Device:R R?
U 1 1 600D0293
P 7600 2000
AR Path="/600D0293" Ref="R?"  Part="1" 
AR Path="/600B9BE2/600D0293" Ref="R10"  Part="1" 
F 0 "R10" H 7530 1954 50  0000 R CNN
F 1 "15M" H 7530 2045 50  0000 R CNN
F 2 "Resistor_SMD:R_0603_1608Metric" V 7530 2000 50  0001 C CNN
F 3 "~" H 7600 2000 50  0001 C CNN
F 4 "" H 7600 2000 50  0001 C CNN "MPN"
F 5 "" H 7600 2000 50  0001 C CNN "Source"
F 6 "" H 7600 2000 50  0001 C CNN "Farnell No."
	1    7600 2000
	-1   0    0    1   
$EndComp
$Comp
L Device:R R?
U 1 1 600D0299
P 7600 2400
AR Path="/600D0299" Ref="R?"  Part="1" 
AR Path="/600B9BE2/600D0299" Ref="R11"  Part="1" 
F 0 "R11" H 7530 2354 50  0000 R CNN
F 1 "15M" H 7530 2445 50  0000 R CNN
F 2 "Resistor_SMD:R_0603_1608Metric" V 7530 2400 50  0001 C CNN
F 3 "~" H 7600 2400 50  0001 C CNN
F 4 "" H 7600 2400 50  0001 C CNN "MPN"
F 5 "" H 7600 2400 50  0001 C CNN "Source"
F 6 "" H 7600 2400 50  0001 C CNN "Farnell No."
	1    7600 2400
	-1   0    0    1   
$EndComp
Wire Wire Line
	5800 1700 7200 1700
Wire Wire Line
	7200 1700 7200 2650
Wire Wire Line
	7200 2650 7600 2650
Wire Wire Line
	7600 2650 7600 2550
Connection ~ 5800 1700
Wire Wire Line
	7600 2150 7600 2200
Wire Wire Line
	7600 2200 7950 2200
Connection ~ 7600 2200
Wire Wire Line
	7600 2200 7600 2250
Connection ~ 7950 2200
$Comp
L power:GND #PWR?
U 1 1 600D02A9
P 7950 1850
AR Path="/600D02A9" Ref="#PWR?"  Part="1" 
AR Path="/600B9BE2/600D02A9" Ref="#PWR0157"  Part="1" 
F 0 "#PWR0157" H 7950 1600 50  0001 C CNN
F 1 "GND" H 7955 1677 50  0000 C CNN
F 2 "" H 7950 1850 50  0001 C CNN
F 3 "" H 7950 1850 50  0001 C CNN
	1    7950 1850
	1    0    0    -1  
$EndComp
Wire Wire Line
	7600 1850 7600 1750
Wire Wire Line
	7600 1750 7950 1750
Wire Wire Line
	7950 1750 7950 1850
$Comp
L Device:C C?
U 1 1 600D02B2
P 7950 3700
AR Path="/600D02B2" Ref="C?"  Part="1" 
AR Path="/600B9BE2/600D02B2" Ref="C12"  Part="1" 
F 0 "C12" H 8065 3746 50  0000 L CNN
F 1 "100n" H 8065 3655 50  0000 L CNN
F 2 "Capacitor_SMD:C_0603_1608Metric" H 7988 3550 50  0001 C CNN
F 3 "~" H 7950 3700 50  0001 C CNN
F 4 "06033C104KAT4A" H 7950 3700 50  0001 C CNN "MPN"
F 5 "Farnell" H 7950 3700 50  0001 C CNN "Source"
F 6 "2332586" H 7950 3700 50  0001 C CNN "Farnell No."
	1    7950 3700
	1    0    0    -1  
$EndComp
$Comp
L power:GND #PWR?
U 1 1 600D02B8
P 7950 3850
AR Path="/600D02B8" Ref="#PWR?"  Part="1" 
AR Path="/600B9BE2/600D02B8" Ref="#PWR0158"  Part="1" 
F 0 "#PWR0158" H 7950 3600 50  0001 C CNN
F 1 "GND" H 7955 3677 50  0000 C CNN
F 2 "" H 7950 3850 50  0001 C CNN
F 3 "" H 7950 3850 50  0001 C CNN
	1    7950 3850
	1    0    0    -1  
$EndComp
Wire Wire Line
	7950 3550 7950 3500
Wire Wire Line
	7950 3500 8500 3500
$Comp
L Device:R R?
U 1 1 600D02C0
P 7600 3300
AR Path="/600D02C0" Ref="R?"  Part="1" 
AR Path="/600B9BE2/600D02C0" Ref="R12"  Part="1" 
F 0 "R12" H 7530 3254 50  0000 R CNN
F 1 "15M" H 7530 3345 50  0000 R CNN
F 2 "Resistor_SMD:R_0603_1608Metric" V 7530 3300 50  0001 C CNN
F 3 "~" H 7600 3300 50  0001 C CNN
F 4 "" H 7600 3300 50  0001 C CNN "MPN"
F 5 "" H 7600 3300 50  0001 C CNN "Source"
F 6 "" H 7600 3300 50  0001 C CNN "Farnell No."
	1    7600 3300
	-1   0    0    1   
$EndComp
$Comp
L Device:R R?
U 1 1 600D02C6
P 7600 3700
AR Path="/600D02C6" Ref="R?"  Part="1" 
AR Path="/600B9BE2/600D02C6" Ref="R13"  Part="1" 
F 0 "R13" H 7530 3654 50  0000 R CNN
F 1 "15M" H 7530 3745 50  0000 R CNN
F 2 "Resistor_SMD:R_0603_1608Metric" V 7530 3700 50  0001 C CNN
F 3 "~" H 7600 3700 50  0001 C CNN
F 4 "" H 7600 3700 50  0001 C CNN "MPN"
F 5 "" H 7600 3700 50  0001 C CNN "Source"
F 6 "" H 7600 3700 50  0001 C CNN "Farnell No."
	1    7600 3700
	-1   0    0    1   
$EndComp
Wire Wire Line
	7600 3950 7600 3850
Wire Wire Line
	7600 3450 7600 3500
Wire Wire Line
	7600 3500 7950 3500
Connection ~ 7600 3500
Wire Wire Line
	7600 3500 7600 3550
Connection ~ 7950 3500
$Comp
L power:+BATT #PWR?
U 1 1 600D02D2
P 7300 3900
AR Path="/600D02D2" Ref="#PWR?"  Part="1" 
AR Path="/600B9BE2/600D02D2" Ref="#PWR0159"  Part="1" 
F 0 "#PWR0159" H 7300 3750 50  0001 C CNN
F 1 "+BATT" H 7315 4073 50  0000 C CNN
F 2 "" H 7300 3900 50  0001 C CNN
F 3 "" H 7300 3900 50  0001 C CNN
	1    7300 3900
	1    0    0    -1  
$EndComp
Wire Wire Line
	7300 3900 7300 3950
Wire Wire Line
	7300 3950 7600 3950
Wire Wire Line
	7600 2650 7600 3150
Connection ~ 7600 2650
$Comp
L power:GND #PWR?
U 1 1 600D02DC
P 7950 2550
AR Path="/600D02DC" Ref="#PWR?"  Part="1" 
AR Path="/600B9BE2/600D02DC" Ref="#PWR0160"  Part="1" 
F 0 "#PWR0160" H 7950 2300 50  0001 C CNN
F 1 "GND" H 7955 2377 50  0000 C CNN
F 2 "" H 7950 2550 50  0001 C CNN
F 3 "" H 7950 2550 50  0001 C CNN
	1    7950 2550
	1    0    0    -1  
$EndComp
$Comp
L Device:C C?
U 1 1 600D02E2
P 7950 2400
AR Path="/600D02E2" Ref="C?"  Part="1" 
AR Path="/600B9BE2/600D02E2" Ref="C11"  Part="1" 
F 0 "C11" H 8065 2446 50  0000 L CNN
F 1 "100n" H 8065 2355 50  0000 L CNN
F 2 "Capacitor_SMD:C_0603_1608Metric" H 7988 2250 50  0001 C CNN
F 3 "~" H 7950 2400 50  0001 C CNN
F 4 "06033C104KAT4A" H 7950 2400 50  0001 C CNN "MPN"
F 5 "Farnell" H 7950 2400 50  0001 C CNN "Source"
F 6 "2332586" H 7950 2400 50  0001 C CNN "Farnell No."
	1    7950 2400
	1    0    0    -1  
$EndComp
Wire Notes Line
	6900 4200 9550 4200
Wire Notes Line
	9550 4200 9550 1450
Wire Notes Line
	6900 1450 6900 4200
Wire Notes Line
	4850 1450 9550 1450
Text Notes 8700 4050 0    50   ~ 0
Window Comparator
Wire Wire Line
	9200 2300 10050 2300
Wire Wire Line
	9200 3400 10050 3400
Text HLabel 10050 2300 2    50   Output ~ 0
PIR_HI
Text HLabel 10050 3400 2    50   Output ~ 0
PIR_LO
Text Notes 4350 1300 0    50   ~ 0
Low pass and amplifier
$EndSCHEMATC
